…
    ## <Analysis/Assess/Total>
    ## <250/83/333>

### As we don’t have a lot of data hence it makes sense to create resamples to evaluatethe model properly. We will save the test set for final generalization.

``` r
set.seed(234)
penguin_boot <- penguin_train %>% 
    bootstraps(times = 100)
penguin_boot
```

    ## # Bootstrap sampling 
    ## # A tibble: 100 x 2
    ##    splits           id          
    ##    <list>           <chr>       
    ##  1 <split [250/93]> Bootstrap001
    ##  2 <split [250/99]> Bootstrap002
    ##  3 <split [250/93]> Bootstrap003
    ##  4 <split [250/99]> Bootstrap004
    ##  5 <split [250/92]> Bootstrap005
    ##  6 <split [250/91]> Bootstrap006
    ##  7 <split [250/85]> Bootstrap007
    ##  8 <split [250/93]> Bootstrap008
    ##  9 <split [250/90]> Bootstrap009
    ## 10 <split [250/89]> Bootstrap010
    ## # ... with 90 more rows
…
